[
    {
	"command": "ovsdb-server",
	"args": [
	    "--remote=punix:/usr/local/var/run/openvswitch/db.sock",
	    "--remote=db:Open_vSwitch,Open_vSwitch,manager_options",
	    "--private-key=db:Open_vSwitch,SSL,private_key",
	    "--certificate=db:Open_vSwitch,SSL,certificate",
	    "--bootstrap-ca-cert=db:Open_vSwitch,SSL,ca_cert",
	    "--pidfile",
	    "--detach",
	    "--log-file"
	]
    },
    {
	"command": "ovs-vswitchd",
	"args": [
	    "--pidfile",
	    "--detach",
	    "--log-file"
	]
	
    },
    {
	"command": "ovs-vsctl",
	"args": [
	    "add-br",
	    "br-int"
	]
    },
]

