{
    "resStructure": "Status: {status}\nContent-type: {contype}\n\n{body}",
    "resStructur": "Status: {status}\n{cookie}\nContent-type: {contype}\n\n{body}",
    "template": "temp/project/templates/register.tpl",
    "ntemplate": "temp/project/templates/home.tpl",
    "logintemplate": "temp/project/templates/login.tpl",
    "messagetemplate": "temp/project/templates/try.tpl",    
    "requestResolver": {
	"responseHeaders": {
	    "contentType": "application/json"
	}
    },
    
    "hostServer": {
	"responseHeaders": {
	    "contentType": "text/html"
	}
    },
    
    "authServer": {
	"scheme": "http",
	"url"  : "localhost",
	"port" : 80,
	"registration": "cgi-bin/register.py",
	"login": "cgi-bin/login.py"
    },
    "dbContext": {
	"host": "localhost",
	"dbname": "trialdb",
	"username": "root",
	"password": "tiger",
	"sqlfile": "sql/filewatchersetup.sql",
	"selectquery": "SELECT * FROM {tablename} {conditions}",
	"insertquery": "INSERT INTO {tablename}({columnname}) VALUES({values})",
	"replacequery": "REPLACE INTO {tablename}({columnname}) VALUES({values})"
    },
    "dbServer": {
	"config": {
	    "host": "localhost",
	    "dbname": "trialdb",
	    "username": "root",
	    "password": "tiger",
	    "sqlfile": "sql/filewatchersetup.sql",
	    "selectquery": "SELECT * FROM {tablename} {conditions}",
	    "insertquery": "REPLACE INTO {tablename}({columnname}) VALUES({values})"
	},
	"sqlstmts": ""
    }
}
